Lab5/Lab5test/lab5.vcd
$date
	Tue May 31 04:46:43 2022
$end
$version
	Icarus Verilog
$end
$timescale
	1ps
$end
$scope module testbench $end
$var reg 1 ! clk $end
$var reg 1 " rst_n $end
$var integer 32 # count [31:0] $end
$var integer 32 $ fp_w [31:0] $end
$scope module CPU $end
$var wire 1 ! clk_i $end
$var wire 1 " rst_i $end
$var wire 32 % instr [31:0] $end
$var wire 32 & SL1_o [31:0] $end
$var wire 1 ' RegWrite $end
$var wire 32 ( RTdata_o [31:0] $end
$var wire 32 ) RSdata_o [31:0] $end
$var wire 1 * PC_write $end
$var wire 32 + PC_o [31:0] $end
$var wire 32 , PC_i [31:0] $end
$var wire 32 - PC_Add_Immediate [31:0] $end
$var wire 32 . PC_Add4 [31:0] $end
$var wire 1 / MemtoReg $end
$var wire 1 0 MemWrite $end
$var wire 1 1 MemRead $end
$var wire 32 2 MUX_control_o [31:0] $end
$var wire 32 3 MUXMemtoReg_o [31:0] $end
$var wire 1 4 MUXControl $end
$var wire 32 5 MUXALUSrc_o [31:0] $end
$var wire 3 6 MEMWB_WB_o [2:0] $end
$var wire 32 7 MEMWB_PC_Add4_o [31:0] $end
$var wire 5 8 MEMWB_Instr_11_7_o [4:0] $end
$var wire 32 9 MEMWB_DM_o [31:0] $end
$var wire 32 : MEMWB_ALUresult_o [31:0] $end
$var wire 1 ; Jump $end
$var wire 32 < Imm_Gen_o [31:0] $end
$var wire 1 = IFID_Write $end
$var wire 32 > IFID_PC_o [31:0] $end
$var wire 32 ? IFID_PC_Add4_o [31:0] $end
$var wire 32 @ IFID_Instr_o [31:0] $end
$var wire 1 A IFID_Flush $end
$var wire 3 B IDEXE_WB_o [2:0] $end
$var wire 32 C IDEXE_RTdata_o [31:0] $end
$var wire 32 D IDEXE_RSdata_o [31:0] $end
$var wire 32 E IDEXE_PC_add4_o [31:0] $end
$var wire 2 F IDEXE_Mem_o [1:0] $end
$var wire 32 G IDEXE_Instr_o [31:0] $end
$var wire 4 H IDEXE_Instr_30_14_12_o [3:0] $end
$var wire 5 I IDEXE_Instr_11_7_o [4:0] $end
$var wire 32 J IDEXE_ImmGen_o [31:0] $end
$var wire 3 K IDEXE_Exe_o [2:0] $end
$var wire 2 L ForwardB [1:0] $end
$var wire 2 M ForwardA [1:0] $end
$var wire 1 N EXEMEM_Zero_o $end
$var wire 3 O EXEMEM_WB_o [2:0] $end
$var wire 32 P EXEMEM_RTdata_o [31:0] $end
$var wire 32 Q EXEMEM_PC_Add4_o [31:0] $end
$var wire 2 R EXEMEM_Mem_o [1:0] $end
$var wire 32 S EXEMEM_Instr_o [31:0] $end
$var wire 5 T EXEMEM_Instr_11_7_o [4:0] $end
$var wire 32 U EXEMEM_ALUResult_o [31:0] $end
$var wire 32 V DM_o [31:0] $end
$var wire 1 W Branch_zero $end
$var wire 1 X Branch $end
$var wire 1 Y ALU_zero $end
$var wire 4 Z ALU_Ctrl_o [3:0] $end
$var wire 32 [ ALUSrc2_o [31:0] $end
$var wire 32 \ ALUSrc1_o [31:0] $end
$var wire 1 ] ALUSrc $end
$var wire 32 ^ ALUResult [31:0] $end
$var wire 2 _ ALUOp [1:0] $end
$scope module ALU_Ctrl $end
$var wire 2 ` ALUOp [1:0] $end
$var wire 4 a instr [3:0] $end
$var wire 3 b func3 [2:0] $end
$var reg 4 c ALU_Ctrl_o [3:0] $end
$upscope $end
$scope module Branch_Adder $end
$var wire 32 d src2_i [31:0] $end
$var wire 32 e src1_i [31:0] $end
$var reg 32 f sum_o [31:0] $end
$upscope $end
$scope module Data_Memory $end
$var wire 1 g MemRead_i $end
$var wire 1 h MemWrite_i $end
$var wire 1 ! clk_i $end
$var wire 32 i data_o [31:0] $end
$var wire 32 j data_i [31:0] $end
$var wire 32 k addr_i [31:0] $end
$var integer 32 l i [31:0] $end
$upscope $end
$scope module Decoder $end
$var wire 1 W branch_i $end
$var wire 3 m funct3 [2:0] $end
$var wire 7 n opcode [6:0] $end
$var wire 32 o instr_i [31:0] $end
$var reg 2 p ALUOp [1:0] $end
$var reg 1 ] ALUSrc $end
$var reg 1 X Branch $end
$var reg 1 A Flush $end
$var reg 1 ; Jump $end
$var reg 1 1 MemRead $end
$var reg 1 0 MemWrite $end
$var reg 1 / MemtoReg $end
$var reg 1 ' RegWrite $end
$upscope $end
$scope module EXEtoMEM $end
$var wire 1 ! clk_i $end
$var wire 1 " rst_i $end
$var wire 1 Y zero_i $end
$var wire 32 q rtdata_i [31:0] $end
$var wire 32 r pc_add4_i [31:0] $end
$var wire 32 s instr_i [31:0] $end
$var wire 32 t alu_ans_i [31:0] $end
$var wire 5 u WBreg_i [4:0] $end
$var wire 3 v WB_i [2:0] $end
$var wire 2 w Mem_i [1:0] $end
$var reg 2 x Mem_o [1:0] $end
$var reg 3 y WB_o [2:0] $end
$var reg 5 z WBreg_o [4:0] $end
$var reg 32 { alu_ans_o [31:0] $end
$var reg 32 | instr_o [31:0] $end
$var reg 32 } pc_add4_o [31:0] $end
$var reg 32 ~ rtdata_o [31:0] $end
$var reg 1 N zero_o $end
$upscope $end
$scope module FWUnit $end
$var wire 5 !" EXEMEM_RD [4:0] $end
$var wire 1 "" EXEMEM_RegWrite $end
$var wire 5 #" IDEXE_RS1 [4:0] $end
$var wire 5 $" IDEXE_RS2 [4:0] $end
$var wire 1 %" MEMWB_RegWrite $end
$var wire 5 &" MEMWB_RD [4:0] $end
$var reg 2 '" ForwardA [1:0] $end
$var reg 2 (" ForwardB [1:0] $end
$upscope $end
$scope module Hazard_detection_obj $end
$var wire 1 )" IDEXE_memRead $end
$var wire 5 *" IFID_regRs [4:0] $end
$var wire 5 +" IFID_regRt [4:0] $end
$var wire 5 ," IDEXE_regRd [4:0] $end
$var reg 1 = IFID_write $end
$var reg 1 * PC_write $end
$var reg 1 4 control_output_select $end
$upscope $end
$scope module IDtoEXE $end
$var wire 3 -" Exe_i [2:0] $end
$var wire 2 ." Mem_i [1:0] $end
$var wire 3 /" WB_i [2:0] $end
$var wire 5 0" WBreg_i [4:0] $end
$var wire 4 1" alu_ctrl_instr [3:0] $end
$var wire 1 ! clk_i $end
$var wire 1 " rst_i $end
$var wire 32 2" pc_add4_i [31:0] $end
$var wire 32 3" instr_i [31:0] $end
$var wire 32 4" immgen_i [31:0] $end
$var wire 32 5" data2_i [31:0] $end
$var wire 32 6" data1_i [31:0] $end
$var reg 3 7" Exe_o [2:0] $end
$var reg 2 8" Mem_o [1:0] $end
$var reg 3 9" WB_o [2:0] $end
$var reg 5 :" WBreg_o [4:0] $end
$var reg 4 ;" alu_ctrl_input [3:0] $end
$var reg 32 <" data1_o [31:0] $end
$var reg 32 =" data2_o [31:0] $end
$var reg 32 >" immgen_o [31:0] $end
$var reg 32 ?" instr_o [31:0] $end
$var reg 32 @" pc_add4_o [31:0] $end
$upscope $end
$scope module IFtoID $end
$var wire 1 = IFID_write $end
$var wire 1 ! clk_i $end
$var wire 1 A flush $end
$var wire 1 " rst_i $end
$var wire 32 A" pc_add4_i [31:0] $end
$var wire 32 B" instr_i [31:0] $end
$var wire 32 C" address_i [31:0] $end
$var reg 32 D" address_o [31:0] $end
$var reg 32 E" instr_o [31:0] $end
$var reg 32 F" pc_add4_o [31:0] $end
$upscope $end
$scope module IM $end
$var wire 32 G" instr_o [31:0] $end
$var wire 32 H" addr_i [31:0] $end
$var integer 32 I" i [31:0] $end
$upscope $end
$scope module ImmGen $end
$var wire 32 J" instr_i [31:0] $end
$var wire 7 K" opcode [6:0] $end
$var wire 3 L" func3 [2:0] $end
$var reg 32 M" Imm_Gen_o [31:0] $end
$var integer 32 N" i [31:0] $end
$upscope $end
$scope module MEMtoWB $end
$var wire 32 O" DM_i [31:0] $end
$var wire 3 P" WB_i [2:0] $end
$var wire 5 Q" WBreg_i [4:0] $end
$var wire 32 R" alu_ans_i [31:0] $end
$var wire 1 ! clk_i $end
$var wire 32 S" pc_add4_i [31:0] $end
$var wire 1 " rst_i $end
$var reg 32 T" DM_o [31:0] $end
$var reg 3 U" WB_o [2:0] $end
$var reg 5 V" WBreg_o [4:0] $end
$var reg 32 W" alu_ans_o [31:0] $end
$var reg 32 X" pc_add4_o [31:0] $end
$upscope $end
$scope module MUX_ALUSrc $end
$var wire 32 Y" data0_i [31:0] $end
$var wire 32 Z" data1_i [31:0] $end
$var wire 1 [" select_i $end
$var reg 32 \" data_o [31:0] $end
$upscope $end
$scope module MUX_ALU_src1 $end
$var wire 32 ]" data0_i [31:0] $end
$var wire 32 ^" data2_i [31:0] $end
$var wire 2 _" select_i [1:0] $end
$var wire 32 `" data1_i [31:0] $end
$var reg 32 a" data_o [31:0] $end
$upscope $end
$scope module MUX_ALU_src2 $end
$var wire 32 b" data0_i [31:0] $end
$var wire 32 c" data2_i [31:0] $end
$var wire 2 d" select_i [1:0] $end
$var wire 32 e" data1_i [31:0] $end
$var reg 32 f" data_o [31:0] $end
$upscope $end
$scope module MUX_MemtoReg $end
$var wire 32 g" data0_i [31:0] $end
$var wire 32 h" data1_i [31:0] $end
$var wire 32 i" data2_i [31:0] $end
$var wire 2 j" select_i [1:0] $end
$var reg 32 k" data_o [31:0] $end
$upscope $end
$scope module MUX_PCSrc $end
$var wire 32 l" data0_i [31:0] $end
$var wire 1 m" select_i $end
$var wire 32 n" data1_i [31:0] $end
$var reg 32 o" data_o [31:0] $end
$upscope $end
$scope module MUX_control $end
$var wire 32 p" data0_i [31:0] $end
$var wire 32 q" data1_i [31:0] $end
$var wire 1 4 select_i $end
$var reg 32 r" data_o [31:0] $end
$upscope $end
$scope module PC $end
$var wire 1 * PCWrite $end
$var wire 1 ! clk_i $end
$var wire 32 s" pc_i [31:0] $end
$var wire 1 " rst_i $end
$var reg 32 t" pc_o [31:0] $end
$upscope $end
$scope module PC_plus_4_Adder $end
$var wire 32 u" src1_i [31:0] $end
$var wire 32 v" src2_i [31:0] $end
$var reg 32 w" sum_o [31:0] $end
$upscope $end
$scope module RF $end
$var wire 5 x" RDaddr_i [4:0] $end
$var wire 32 y" RDdata_i [31:0] $end
$var wire 5 z" RSaddr_i [4:0] $end
$var wire 32 {" RSdata_o [31:0] $end
$var wire 5 |" RTaddr_i [4:0] $end
$var wire 32 }" RTdata_o [31:0] $end
$var wire 1 ~" RegWrite_i $end
$var wire 1 ! clk_i $end
$var wire 1 " rst_i $end
$upscope $end
$scope module SL1 $end
$var wire 32 !# data_i [31:0] $end
$var reg 32 "# data_o [31:0] $end
$upscope $end
$scope module alu $end
$var wire 4 ## ALU_control [3:0] $end
$var wire 1 $# less $end
$var wire 1 " rst_n $end
$var wire 32 %# src1 [31:0] $end
$var wire 32 &# src2 [31:0] $end
$var wire 1 '# B31 $end
$var wire 1 (# A31 $end
$var reg 32 )# result [31:0] $end
$var reg 1 Y zero $end
$upscope $end
$upscope $end
$upscope $end
$enddefinitions $end
#0
$dumpvars
b0 )#
x(#
x'#
bx &#
bx %#
0$#
bx ##
bx "#
bx !#
x~"
bx }"
bx |"
bx {"
bx z"
bx y"
bx x"
bx w"
b100 v"
bx u"
bx t"
bx s"
bx r"
b0 q"
b1000111 p"
bx o"
bx n"
xm"
bx l"
bx k"
bx j"
bx i"
bx h"
bx g"
bx f"
bx e"
bx d"
bx c"
bx b"
bx a"
bx `"
bx _"
bx ^"
bx ]"
bx \"
x["
bx Z"
bx Y"
bx X"
bx W"
bx V"
bx U"
bx T"
bx S"
bx R"
bx Q"
bx P"
bx O"
bx N"
bx M"
bx L"
bx K"
bx J"
b100000 I"
bx H"
bx G"
bx F"
bx E"
bx D"
bx C"
bx B"
bx A"
bx @"
bx ?"
bx >"
bx ="
bx <"
bx ;"
bx :"
bx 9"
bx 8"
bx 7"
bx 6"
bx 5"
bx 4"
bx 3"
bx 2"
bx 1"
bx 0"
bx /"
bx ."
bx -"
bx ,"
bx +"
bx *"
x)"
bx ("
bx '"
bx &"
x%"
bx $"
bx #"
x""
bx !"
bx ~
bx }
bx |
bx {
bx z
bx y
bx x
bx w
bx v
bx u
b0 t
bx s
bx r
bx q
b11 p
bx o
bx n
bx m
b10000000 l
bx k
bx j
bx i
xh
xg
bx f
bx e
bx d
bx c
bx b
bx a
bx `
b11 _
b0 ^
1]
bx \
bx [
bx Z
0Y
xX
xW
bx V
bx U
bx T
bx S
bx R
bx Q
bx P
bx O
xN
bx M
bx L
bx K
bx J
bx I
bx H
bx G
bx F
bx E
bx D
bx C
bx B
xA
bx @
bx ?
bx >
x=
bx <
0;
bx :
bx 9
bx 8
bx 7
bx 6
bx 5
x4
bx 3
bx 2
01
00
0/
bx .
bx -
bx ,
bx +
x*
bx )
bx (
1'
bx &
bx %
b10000000000000000000000000000011 $
b0 #
0"
0!
$end
#25000
0'#
b0 [
b0 f"
b0 &#
b100 ,
b100 o"
b100 s"
b0 5
b0 \"
b0 b"
b0 -
b0 f
b0 l"
0(#
1m"
1["
b111 -"
b0 ."
b10 /"
b0 &
b0 e
b0 "#
0A
b1000111 2
b1000111 r"
b0 \
b0 a"
b0 %#
b0 <
b0 4"
b0 M"
b0 !#
0X
b100 .
b100 A"
b100 n"
b100 w"
04
1=
1*
b10 Z
b10 c
b10 ##
b0 L
b0 ("
b0 d"
b0 M
b0 '"
b0 _"
b0 3
b0 `"
b0 e"
b0 k"
b0 y"
b100000 N"
1W
b10011 K"
b0 L"
b10011 n
b0 0"
b0 1"
b0 (
b0 5"
b0 }"
b0 |"
b0 )
b0 6"
b0 {"
b0 z"
b0 +"
b0 *"
b0 b
b0 `
0)"
b0 $"
b0 #"
b0 V
b0 i
b0 O"
0h
0g
0""
b0 j"
0%"
0~"
b100000000000000011101111 %
b100000000000000011101111 B"
b100000000000000011101111 G"
b0 +
b0 C"
b0 H"
b0 t"
b0 u"
b0 ?
b0 2"
b0 F"
b10011 @
b10011 o
b10011 3"
b10011 E"
b10011 J"
b0 >
b0 d
b0 D"
b0 E
b0 r
b0 @"
b0 I
b0 u
b0 ,"
b0 :"
b0 H
b0 a
b0 ;"
b0 J
b0 >"
b0 Z"
b0 C
b0 q
b0 ="
b0 Y"
b0 D
b0 <"
b0 ]"
b0 K
b0 7"
b0 F
b0 w
b0 8"
b0 B
b0 v
b0 9"
b0 G
b0 s
b0 ?"
b0 Q
b0 }
b0 S"
b0 T
b0 z
b0 !"
b0 Q"
b0 P
b0 j
b0 ~
b0 U
b0 k
b0 {
b0 R"
b0 ^"
b0 c"
0N
b0 R
b0 x
b0 O
b0 y
b0 P"
b0 S
b0 |
b0 7
b0 X"
b0 i"
b0 8
b0 &"
b0 V"
b0 x"
b0 :
b0 W"
b0 g"
b0 9
b0 T"
b0 h"
b0 6
b0 U"
b1 #
1!
#50000
1Y
0!
1"
#75000
b10000 -
b10000 f
b10000 l"
0m"
0["
b0 -"
b11 /"
1A
b1100000 2
b1100000 r"
b10000 &
b10000 e
b10000 "#
b10000 ,
b10000 o"
b10000 s"
b0 _
b0 p
0]
b1100000 p"
1;
b1000 <
b1000 4"
b1000 M"
b1000 !#
b1000 .
b1000 A"
b1000 n"
b1000 w"
b11 `
b1101111 K"
b1101111 n
b1 0"
b1000 |"
b1000 +"
b100000 N"
1N
b111 K
b111 7"
b10 B
b10 v
b10 9"
b10011 G
b10011 s
b10011 ?"
b100 ?
b100 2"
b100 F"
b100000000000000011101111 @
b100000000000000011101111 o
b100000000000000011101111 3"
b100000000000000011101111 E"
b100000000000000011101111 J"
b10100100000001000010011 %
b10100100000001000010011 B"
b10100100000001000010011 G"
b100 +
b100 C"
b100 H"
b100 t"
b100 u"
b10 #
1!
#100000
0!
#125000
0Y
b1000 ^
b1000 t
b1000 )#
b1000 [
b1000 f"
b1000 &#
b10100 ,
b10100 o"
b10100 s"
b1000 5
b1000 \"
b1000 b"
b0 -
b0 f
b0 l"
1m"
1["
b111 -"
b10 /"
0A
b1000111 2
b1000111 r"
b0 &
b0 e
b0 "#
b11 _
b11 p
1]
b1000111 p"
0;
b10100 .
b10100 A"
b10100 n"
b10100 w"
b0 <
b0 4"
b0 M"
b0 !#
b10011 K"
b10011 n
b0 0"
b0 |"
b0 +"
b100000 N"
b0 `
b1000 $"
1""
b0 %
b0 B"
b0 G"
b10000 +
b10000 C"
b10000 H"
b10000 t"
b10000 u"
b0 ?
b0 2"
b0 F"
b10011 @
b10011 o
b10011 3"
b10011 E"
b10011 J"
b100 E
b100 r
b100 @"
b1 I
b1 u
b1 ,"
b1 :"
b1000 J
b1000 >"
b1000 Z"
b0 K
b0 7"
b11 B
b11 v
b11 9"
b100000000000000011101111 G
b100000000000000011101111 s
b100000000000000011101111 ?"
b10 O
b10 y
b10 P"
b10011 S
b10011 |
b11 #
1!
#150000
0!
#175000
1Y
b0 ^
b0 t
b0 )#
b0 [
b0 f"
b0 &#
b11000 ,
b11000 o"
b11000 s"
b0 5
b0 \"
b0 b"
b10000 -
b10000 f
b10000 l"
b11000 .
b11000 A"
b11000 n"
b11000 w"
1%"
1~"
b11 `
b0 $"
b0 K"
b0 n
b100000 N"
b10 6
b10 U"
b100 Q
b100 }
b100 S"
b1 T
b1 z
b1 !"
b1 Q"
b1000 U
b1000 k
b1000 {
b1000 R"
b1000 ^"
b1000 c"
0N
b11 O
b11 y
b11 P"
b100000000000000011101111 S
b100000000000000011101111 |
b0 E
b0 r
b0 @"
b0 I
b0 u
b0 ,"
b0 :"
b0 J
b0 >"
b0 Z"
b111 K
b111 7"
b10 B
b10 v
b10 9"
b10011 G
b10011 s
b10011 ?"
b10100 ?
b10100 2"
b10100 F"
b0 @
b0 o
b0 3"
b0 E"
b0 J"
b10000 >
b10000 d
b10000 D"
b10100 +
b10100 C"
b10100 H"
b10100 t"
b10100 u"
b100 #
1!
#200000
0!
#225000
b11100 ,
b11100 o"
b11100 s"
b11100 .
b11100 A"
b11100 n"
b11100 w"
b10100 -
b10100 f
b10100 l"
b100 3
b100 `"
b100 e"
b100 k"
b100 y"
b10 j"
b11000 +
b11000 C"
b11000 H"
b11000 t"
b11000 u"
b11000 ?
b11000 2"
b11000 F"
b10100 >
b10100 d
b10100 D"
b10100 E
b10100 r
b10100 @"
b0 G
b0 s
b0 ?"
b0 Q
b0 }
b0 S"
b0 T
b0 z
b0 !"
b0 Q"
b0 U
b0 k
b0 {
b0 R"
b0 ^"
b0 c"
1N
b10 O
b10 y
b10 P"
b10011 S
b10011 |
b100 7
b100 X"
b100 i"
b1 8
b1 &"
b1 V"
b1 x"
b1000 :
b1000 W"
b1000 g"
b11 6
b11 U"
b101 #
1!
#250000
0!
#275000
b100000 ,
b100000 o"
b100000 s"
b0 3
b0 `"
b0 e"
b0 k"
b0 y"
b11000 -
b11000 f
b11000 l"
b100000 .
b100000 A"
b100000 n"
b100000 w"
b0 j"
b0 7
b0 X"
b0 i"
b0 8
b0 &"
b0 V"
b0 x"
b0 :
b0 W"
b0 g"
b10 6
b10 U"
b10100 Q
b10100 }
b10100 S"
b0 S
b0 |
b11000 E
b11000 r
b11000 @"
b11100 ?
b11100 2"
b11100 F"
b11000 >
b11000 d
b11000 D"
b11100 +
b11100 C"
b11100 H"
b11100 t"
b11100 u"
b110 #
1!
#300000
0!
#325000
b100100 ,
b100100 o"
b100100 s"
b100100 .
b100100 A"
b100100 n"
b100100 w"
b11100 -
b11100 f
b11100 l"
b100000 +
b100000 C"
b100000 H"
b100000 t"
b100000 u"
b100000 ?
b100000 2"
b100000 F"
b11100 >
b11100 d
b11100 D"
b11100 E
b11100 r
b11100 @"
b11000 Q
b11000 }
b11000 S"
b10100 7
b10100 X"
b10100 i"
b111 #
1!
#350000
0!
#375000
b101000 ,
b101000 o"
b101000 s"
b100000 -
b100000 f
b100000 l"
b101000 .
b101000 A"
b101000 n"
b101000 w"
b11000 7
b11000 X"
b11000 i"
b11100 Q
b11100 }
b11100 S"
b100000 E
b100000 r
b100000 @"
b100100 ?
b100100 2"
b100100 F"
b100000 >
b100000 d
b100000 D"
b100100 +
b100100 C"
b100100 H"
b100100 t"
b100100 u"
b1000 #
1!
#400000
0!
#425000
b101100 ,
b101100 o"
b101100 s"
b101100 .
b101100 A"
b101100 n"
b101100 w"
b100100 -
b100100 f
b100100 l"
b101000 +
b101000 C"
b101000 H"
b101000 t"
b101000 u"
b101000 ?
b101000 2"
b101000 F"
b100100 >
b100100 d
b100100 D"
b100100 E
b100100 r
b100100 @"
b100000 Q
b100000 }
b100000 S"
b11100 7
b11100 X"
b11100 i"
b1001 #
1!
#450000
0!
#475000
b110000 ,
b110000 o"
b110000 s"
b101000 -
b101000 f
b101000 l"
b110000 .
b110000 A"
b110000 n"
b110000 w"
b100000 7
b100000 X"
b100000 i"
b100100 Q
b100100 }
b100100 S"
b101000 E
b101000 r
b101000 @"
b101100 ?
b101100 2"
b101100 F"
b101000 >
b101000 d
b101000 D"
b101100 +
b101100 C"
b101100 H"
b101100 t"
b101100 u"
b1010 #
1!
#500000
0!
#525000
b110100 ,
b110100 o"
b110100 s"
b110100 .
b110100 A"
b110100 n"
b110100 w"
b101100 -
b101100 f
b101100 l"
b110000 +
b110000 C"
b110000 H"
b110000 t"
b110000 u"
b110000 ?
b110000 2"
b110000 F"
b101100 >
b101100 d
b101100 D"
b101100 E
b101100 r
b101100 @"
b101000 Q
b101000 }
b101000 S"
b100100 7
b100100 X"
b100100 i"
b1011 #
1!
#550000
0!
#575000
b111000 ,
b111000 o"
b111000 s"
b110000 -
b110000 f
b110000 l"
b111000 .
b111000 A"
b111000 n"
b111000 w"
b101000 7
b101000 X"
b101000 i"
b101100 Q
b101100 }
b101100 S"
b110000 E
b110000 r
b110000 @"
b110100 ?
b110100 2"
b110100 F"
b110000 >
b110000 d
b110000 D"
b110100 +
b110100 C"
b110100 H"
b110100 t"
b110100 u"
b1100 #
1!
#600000
0!
#625000
b111100 ,
b111100 o"
b111100 s"
b111100 .
b111100 A"
b111100 n"
b111100 w"
b110100 -
b110100 f
b110100 l"
b111000 +
b111000 C"
b111000 H"
b111000 t"
b111000 u"
b111000 ?
b111000 2"
b111000 F"
b110100 >
b110100 d
b110100 D"
b110100 E
b110100 r
b110100 @"
b110000 Q
b110000 }
b110000 S"
b101100 7
b101100 X"
b101100 i"
b1101 #
1!
#650000
0!
#675000
b1000000 ,
b1000000 o"
b1000000 s"
b111000 -
b111000 f
b111000 l"
b1000000 .
b1000000 A"
b1000000 n"
b1000000 w"
b110000 7
b110000 X"
b110000 i"
b110100 Q
b110100 }
b110100 S"
b111000 E
b111000 r
b111000 @"
b111100 ?
b111100 2"
b111100 F"
b111000 >
b111000 d
b111000 D"
b111100 +
b111100 C"
b111100 H"
b111100 t"
b111100 u"
b1110 #
1!
#700000
0!
#725000
b1000100 ,
b1000100 o"
b1000100 s"
b1000100 .
b1000100 A"
b1000100 n"
b1000100 w"
b111100 -
b111100 f
b111100 l"
b1000000 +
b1000000 C"
b1000000 H"
b1000000 t"
b1000000 u"
b1000000 ?
b1000000 2"
b1000000 F"
b111100 >
b111100 d
b111100 D"
b111100 E
b111100 r
b111100 @"
b111000 Q
b111000 }
b111000 S"
b110100 7
b110100 X"
b110100 i"
b1111 #
1!
#750000
0!
#775000
b1001000 ,
b1001000 o"
b1001000 s"
b1000000 -
b1000000 f
b1000000 l"
b1001000 .
b1001000 A"
b1001000 n"
b1001000 w"
b111000 7
b111000 X"
b111000 i"
b111100 Q
b111100 }
b111100 S"
b1000000 E
b1000000 r
b1000000 @"
b1000100 ?
b1000100 2"
b1000100 F"
b1000000 >
b1000000 d
b1000000 D"
b1000100 +
b1000100 C"
b1000100 H"
b1000100 t"
b1000100 u"
b10000 #
1!
#800000
0!
#825000
b1001100 ,
b1001100 o"
b1001100 s"
b1001100 .
b1001100 A"
b1001100 n"
b1001100 w"
b1000100 -
b1000100 f
b1000100 l"
b1001000 +
b1001000 C"
b1001000 H"
b1001000 t"
b1001000 u"
b1001000 ?
b1001000 2"
b1001000 F"
b1000100 >
b1000100 d
b1000100 D"
b1000100 E
b1000100 r
b1000100 @"
b1000000 Q
b1000000 }
b1000000 S"
b111100 7
b111100 X"
b111100 i"
b10001 #
1!
#850000
0!
#875000
b1010000 ,
b1010000 o"
b1010000 s"
b1001000 -
b1001000 f
b1001000 l"
b1010000 .
b1010000 A"
b1010000 n"
b1010000 w"
b1000000 7
b1000000 X"
b1000000 i"
b1000100 Q
b1000100 }
b1000100 S"
b1001000 E
b1001000 r
b1001000 @"
b1001100 ?
b1001100 2"
b1001100 F"
b1001000 >
b1001000 d
b1001000 D"
b1001100 +
b1001100 C"
b1001100 H"
b1001100 t"
b1001100 u"
b10010 #
1!
#900000
0!
#925000
b1010100 ,
b1010100 o"
b1010100 s"
b1010100 .
b1010100 A"
b1010100 n"
b1010100 w"
b1001100 -
b1001100 f
b1001100 l"
b1010000 +
b1010000 C"
b1010000 H"
b1010000 t"
b1010000 u"
b1010000 ?
b1010000 2"
b1010000 F"
b1001100 >
b1001100 d
b1001100 D"
b1001100 E
b1001100 r
b1001100 @"
b1001000 Q
b1001000 }
b1001000 S"
b1000100 7
b1000100 X"
b1000100 i"
b10011 #
1!
#950000
0!
#975000
b1011000 ,
b1011000 o"
b1011000 s"
b1010000 -
b1010000 f
b1010000 l"
b1011000 .
b1011000 A"
b1011000 n"
b1011000 w"
b1001000 7
b1001000 X"
b1001000 i"
b1001100 Q
b1001100 }
b1001100 S"
b1010000 E
b1010000 r
b1010000 @"
b1010100 ?
b1010100 2"
b1010100 F"
b1010000 >
b1010000 d
b1010000 D"
b1010100 +
b1010100 C"
b1010100 H"
b1010100 t"
b1010100 u"
b10100 #
1!
#1000000
0!
#1025000
b1011100 ,
b1011100 o"
b1011100 s"
b1011100 .
b1011100 A"
b1011100 n"
b1011100 w"
b1010100 -
b1010100 f
b1010100 l"
b1011000 +
b1011000 C"
b1011000 H"
b1011000 t"
b1011000 u"
b1011000 ?
b1011000 2"
b1011000 F"
b1010100 >
b1010100 d
b1010100 D"
b1010100 E
b1010100 r
b1010100 @"
b1010000 Q
b1010000 }
b1010000 S"
b1001100 7
b1001100 X"
b1001100 i"
b10101 #
1!
#1050000
0!
#1075000
b1100000 ,
b1100000 o"
b1100000 s"
b1011000 -
b1011000 f
b1011000 l"
b1100000 .
b1100000 A"
b1100000 n"
b1100000 w"
b1010000 7
b1010000 X"
b1010000 i"
b1010100 Q
b1010100 }
b1010100 S"
b1011000 E
b1011000 r
b1011000 @"
b1011100 ?
b1011100 2"
b1011100 F"
b1011000 >
b1011000 d
b1011000 D"
b1011100 +
b1011100 C"
b1011100 H"
b1011100 t"
b1011100 u"
b10110 #
1!
#1100000
0!
#1125000
b1100100 ,
b1100100 o"
b1100100 s"
b1100100 .
b1100100 A"
b1100100 n"
b1100100 w"
b1011100 -
b1011100 f
b1011100 l"
b1100000 +
b1100000 C"
b1100000 H"
b1100000 t"
b1100000 u"
b1100000 ?
b1100000 2"
b1100000 F"
b1011100 >
b1011100 d
b1011100 D"
b1011100 E
b1011100 r
b1011100 @"
b1011000 Q
b1011000 }
b1011000 S"
b1010100 7
b1010100 X"
b1010100 i"
b10111 #
1!
#1150000
0!
#1175000
b1101000 ,
b1101000 o"
b1101000 s"
b1100000 -
b1100000 f
b1100000 l"
b1101000 .
b1101000 A"
b1101000 n"
b1101000 w"
b1011000 7
b1011000 X"
b1011000 i"
b1011100 Q
b1011100 }
b1011100 S"
b1100000 E
b1100000 r
b1100000 @"
b1100100 ?
b1100100 2"
b1100100 F"
b1100000 >
b1100000 d
b1100000 D"
b1100100 +
b1100100 C"
b1100100 H"
b1100100 t"
b1100100 u"
b11000 #
1!
#1200000
0!
#1225000
b1101100 ,
b1101100 o"
b1101100 s"
b1101100 .
b1101100 A"
b1101100 n"
b1101100 w"
b1100100 -
b1100100 f
b1100100 l"
b1101000 +
b1101000 C"
b1101000 H"
b1101000 t"
b1101000 u"
b1101000 ?
b1101000 2"
b1101000 F"
b1100100 >
b1100100 d
b1100100 D"
b1100100 E
b1100100 r
b1100100 @"
b1100000 Q
b1100000 }
b1100000 S"
b1011100 7
b1011100 X"
b1011100 i"
b11001 #
1!
#1250000
0!
#1275000
b1110000 ,
b1110000 o"
b1110000 s"
b1101000 -
b1101000 f
b1101000 l"
b1110000 .
b1110000 A"
b1110000 n"
b1110000 w"
b1100000 7
b1100000 X"
b1100000 i"
b1100100 Q
b1100100 }
b1100100 S"
b1101000 E
b1101000 r
b1101000 @"
b1101100 ?
b1101100 2"
b1101100 F"
b1101000 >
b1101000 d
b1101000 D"
b1101100 +
b1101100 C"
b1101100 H"
b1101100 t"
b1101100 u"
b11010 #
1!
#1300000
0!
#1325000
b1110100 ,
b1110100 o"
b1110100 s"
b1110100 .
b1110100 A"
b1110100 n"
b1110100 w"
b1101100 -
b1101100 f
b1101100 l"
b1110000 +
b1110000 C"
b1110000 H"
b1110000 t"
b1110000 u"
b1110000 ?
b1110000 2"
b1110000 F"
b1101100 >
b1101100 d
b1101100 D"
b1101100 E
b1101100 r
b1101100 @"
b1101000 Q
b1101000 }
b1101000 S"
b1100100 7
b1100100 X"
b1100100 i"
b11011 #
1!
#1350000
0!
#1375000
b1111000 ,
b1111000 o"
b1111000 s"
b1110000 -
b1110000 f
b1110000 l"
b1111000 .
b1111000 A"
b1111000 n"
b1111000 w"
b1101000 7
b1101000 X"
b1101000 i"
b1101100 Q
b1101100 }
b1101100 S"
b1110000 E
b1110000 r
b1110000 @"
b1110100 ?
b1110100 2"
b1110100 F"
b1110000 >
b1110000 d
b1110000 D"
b1110100 +
b1110100 C"
b1110100 H"
b1110100 t"
b1110100 u"
b11100 #
1!
#1400000
0!
